// Vitest Snapshot v1

exports[`Stats.vue > mount component 1`] = `
<div
  class="stats"
  data-v-5031b956=""
>
  <div
    class="champion"
    data-v-5031b956=""
  >
    <svg
      data-v-5031b956=""
      fill="currentColor"
      height="1em"
      version="1.1"
      viewBox="0 0 24 24"
      width="1em"
      xmlns="http://www.w3.org/2000/svg"
      xmlns:xlink="http://www.w3.org/1999/xlink"
    >
      <path
        d="M18 2C17.1 2 16 3 16 4H8C8 3 6.9 2 6 2H2V11C2 12 3 13 4 13H6.2C6.6 15 7.9 16.7 11 17V19.08C8 19.54 8 22 8 22H16C16 22 16 19.54 13 19.08V17C16.1 16.7 17.4 15 17.8 13H20C21 13 22 12 22 11V2H18M6 11H4V4H6V11M20 11H18V4H20V11Z"
      />
    </svg>
     Riri 
    <small
      data-v-5031b956=""
    >
      0 times daily starter
    </small>
    <small
      data-v-5031b956=""
    >
      in 0 dailies
    </small>
  </div>
  <ul
    class="starter-ranking"
    data-v-5031b956=""
  >
    
    <li
      data-v-5031b956=""
    >
      <!--v-if-->
    </li>
    <li
      data-v-5031b956=""
    >
      <div
        class="rank"
        data-v-5031b956=""
      >
        <span
          data-v-5031b956=""
        >
          2. 
        </span>
        <span
          class="user"
          data-v-5031b956=""
        >
          Fifi
        </span>
        <span
          data-v-5031b956=""
        >
          0 time
          
          s
          
        </span>
      </div>
    </li>
    <li
      data-v-5031b956=""
    >
      <div
        class="rank"
        data-v-5031b956=""
      >
        <span
          data-v-5031b956=""
        >
          3. 
        </span>
        <span
          class="user"
          data-v-5031b956=""
        >
          Loulou
        </span>
        <span
          data-v-5031b956=""
        >
          0 time
          
          s
          
        </span>
      </div>
    </li>
    
  </ul>
  <nav
    data-v-5031b956=""
  >
    <span
      class="link"
      data-v-5031b956=""
    >
      Return
    </span>
  </nav>
</div>
`;
